<svg width="16" height="100" xmlns="http://www.w3.org/2000/svg">
 <defs>
  <clipPath id="a">
   <rect id="svg_1" stroke-opacity="0.49" stroke-width="1.323" fill="#515151" stroke-miterlimit="10" width="3.704" height="24.342" x="0.529" y="272.658" rx="2.469" ry="3.836"/>
  </clipPath>
 </defs>
 <g>
  <title>background</title>
  <rect fill="none" id="canvas_background" height="35.333334" width="7.333334" y="-1" x="-1"/>
 </g>
 <g>
  <title>Layer 1</title>
  <rect id="svg_2" stroke-width="2.117" stroke="#4b4b4b" fill="#fdfdfd" transform="matrix(3.7797,0,0,3.77948,-1,-1026.506) " stroke-miterlimit="10" clip-path="url(#a)" ry="3.836" rx="2.469" y="272.658" x="0.529" height="24.342" width="3.704"/>
 </g>
</svg>