{
  "server": {
    "host": "0.0.0.0",
    "port": 4000,
    "webpack": {
      "dev": {
        "port": 4001
      }
    },
    "lobby": 60,
    "gameWidth": 4000,
    "gameHeight": 4000
  },
  "client": {
  }
}
